{
  "meta": {
    "limit": 10,
    "next": "?limit=10&offset=20",
    "offset": "10",
    "previous": "?limit=10&offset=0",
    "total_count": 20
  },
  "publications": [
    {
      "title": "El fusilamiento de Penina",
      "author": "Autores: Parra, Isabel Palomera; Gonzalo, Blanca Pascual; Pérez Montes, Mercedes; Rocasolano Díez, Ana",
      "section":"Ciencias de la Información y Política Científica",
      "flag":"red"
    },
    {
      "title": "El fusilamiento de Penina",
      "author": "Autores: Parra, Isabel Palomera; Gonzalo, Blanca Pascual; Pérez Montes, Mercedes; Rocasolano Díez, Ana",
      "section":"Ciencias de la Información y Política Científica",
      "flag":"red"
    },
    {
      "title": "El fusilamiento de Penina",
      "author": "Autores: Parra, Isabel Palomera; Gonzalo, Blanca Pascual; Pérez Montes, Mercedes; Rocasolano Díez, Ana",
      "section":"Ciencias de la Información y Política Científica",
      "flag":"red"
    },
    {
      "title": "El fusilamiento de Penina",
      "author": "Autores: Parra, Isabel Palomera; Gonzalo, Blanca Pascual; Pérez Montes, Mercedes; Rocasolano Díez, Ana",
      "section":"Ciencias de la Información y Política Científica",
      "flag":"red"
    },
    {
      "title": "El fusilamiento de Penina",
      "author": "Autores: Parra, Isabel Palomera; Gonzalo, Blanca Pascual; Pérez Montes, Mercedes; Rocasolano Díez, Ana",
      "section":"Ciencias de la Información y Política Científica",
      "flag":"red"
    },
    {
      "title": "El fusilamiento de Penina",
      "author": "Autores: Parra, Isabel Palomera; Gonzalo, Blanca Pascual; Pérez Montes, Mercedes; Rocasolano Díez, Ana",
      "section":"Ciencias de la Información y Política Científica",
      "flag":"red"
    },
    {
      "title": "El fusilamiento de Penina",
      "author": "Autores: Parra, Isabel Palomera; Gonzalo, Blanca Pascual; Pérez Montes, Mercedes; Rocasolano Díez, Ana",
      "section":"Ciencias de la Información y Política Científica",
      "flag":"red"
    },
    {
      "title": "El fusilamiento de Penina",
      "author": "Autores: Parra, Isabel Palomera; Gonzalo, Blanca Pascual; Pérez Montes, Mercedes; Rocasolano Díez, Ana",
      "section":"Ciencias de la Información y Política Científica",
      "flag":"red"
    },
    {
      "title": "El fusilamiento de Penina",
      "author": "Autores: Parra, Isabel Palomera; Gonzalo, Blanca Pascual; Pérez Montes, Mercedes; Rocasolano Díez, Ana",
      "section":"Ciencias de la Información y Política Científica",
      "flag":"red"
    },
    {
      "title": "El fusilamiento de Penina",
      "author": "Autores: Parra, Isabel Palomera; Gonzalo, Blanca Pascual; Pérez Montes, Mercedes; Rocasolano Díez, Ana",
      "section":"Ciencias de la Información y Política Científica",
      "flag":"red"
    }
  ]
}